SML 201 Fall 2024 - session 3 notes
…
Which stocks had the most volatility over the past year?

dow_df |>
  group_by(ticker) |>
  mutate(volatility = sd(price_close)) |>
  ungroup() |>
  select(ticker, volatility) |>
  distinct() |>
  arrange(desc(volatility))

# A tibble: 30 × 2
   ticker volatility
   <chr>       <dbl>
 1 GS           43.5
 2 UNH          37.5
 3 CRM          22.2
 4 CAT          21.9
 5 AMGN         21.3
 6 AAPL         20.8
 7 MSFT         19.5
 8 AXP          18.9
 9 BA           17.5
10 MMM          16.2
# ℹ 20 more rows
