SML 201 Fall 2024 - 4: Categories
…
summary(demo_df$flossing)

   Min. 1st Qu.  Median    Mean 3rd Qu.    Max.    NA's 
  0.000   2.000   5.000   5.224   7.000  14.000      10 

Example: Football

demo_df |>
  select(football) |>
  separate_longer_delim(football, delim = ",") |>
  count(football) |>
  arrange(desc(n))

# A tibble: 29 × 2
   football                 n
   <chr>                <int>
 1 <NA>                    40
 2 New York Giants         14
 3 Philadelphia Eagles     13
 4 San Francisco 49ers     11
 5 Dallas Cowboys           7
 6 Buffalo Bills            6
 7 Houston Texas            6
 8 New England Patriots     6
 9 Arizona Cardinals        5
10 New York Jets            5
# ℹ 19 more rows

demo_df |>
  select(baseball) |>
  separate_longer_delim(baseball, delim = ",") |>
  count(baseball) |>
  arrange(desc(n))

# A tibble: 28 × 2
   baseball                  n
   <chr>                 <int>
 1 <NA>                     49
 2 New York Yankees         16
 3 Boston Red Sox           11
 4 New York Mets            11
 5 Philadelphia Phillies    11
 6 Los Angeles Dodgers       8
 7 Arizona Diamondbacks      4
 8 Houston Astros            4
 9 Miami Marlins             4
10 San Franciso Giants       4
# ℹ 18 more rows
…
