3: Variance – SML 201
…
Segmentation

Expensive Stocks

Which stocks have had the highest average price_close this year?

dow_df |>
  group_by(ticker) |>
  mutate(avg_price = mean(price_close, na.rm = TRUE)) |>
  ungroup() |>
  select(ticker, avg_price) |>
  distinct() |>
  arrange(desc(avg_price))

# A tibble: 30 × 2
   ticker avg_price
   <chr>      <dbl>
 1 GS          706.
 2 MSFT        464.
 3 CAT         435.
 4 UNH         378.
 5 HD          377.
 6 SHW         346.
 7 V           343.
 8 AXP         318.
 9 MCD         305.
10 AMGN        299.
# ℹ 20 more rows
…
Most Volatile
Least Volatile

Which stocks were the most volatile last year?

dow_df |>
  group_by(ticker) |>
  mutate(volatility = sd(price_close, na.rm = TRUE)) |>
  ungroup() |>
  select(ticker, volatility) |>
  distinct() |>
  arrange(desc(volatility)) #from largest to smallest

# A tibble: 30 × 2
   ticker volatility
   <chr>       <dbl>
 1 GS          124. 
 2 CAT         104. 
 3 UNH          92.8
 4 MSFT         48.8
 5 AXP          36.0
 6 NVDA         29.9
 7 CRM          29.8
 8 JPM          28.5
 9 IBM          26.7
10 AAPL         26.4
# ℹ 20 more rows
…
IBM

Apple

Which stocks were the least volatile last year?

dow_df |>
  group_by(ticker) |>
  mutate(volatility = sd(price_close, na.rm = TRUE)) |>
  ungroup() |>
  select(ticker, volatility) |>
  distinct() |>
  arrange(volatility) #from smallest to largest

# A tibble: 30 × 2
   ticker volatility
   <chr>       <dbl>
 1 VZ           1.86
 2 KO           2.83
 3 CSCO         6.37
 4 NKE          6.78
 5 WMT          8.27
 6 CVX          8.32
 7 MCD          8.86
 8 DIS          8.86
 9 PG           8.87
10 MRK          9.66
# ℹ 20 more rows
…
\(s\): sample standard deviation

Which stocks have the highest coefficients of variation this year?

dow_df |>
  group_by(ticker) |>
  mutate(avg_price = mean(price_close, na.rm = TRUE)) |>
  mutate(volatility = sd(price_close, na.rm = TRUE)) |>
  ungroup() |>
  select(ticker, avg_price, volatility) |>
  distinct() |>
  mutate(coef_var = volatility / avg_price) |>
  arrange(desc(coef_var))

# A tibble: 30 × 4
   ticker avg_price volatility coef_var
   <chr>      <dbl>      <dbl>    <dbl>
 1 UNH        378.       92.8     0.245
 2 CAT        435.      104.      0.239
 3 NVDA       156.       29.9     0.191
 4 GS         706.      124.      0.176
 5 JNJ        174.       22.0     0.127
 6 BA         202.       25.5     0.126
 7 AXP        318.       36.0     0.113
 8 AAPL       234.       26.4     0.113
 9 CRM        267.       29.8     0.112
10 MRK         88.8       9.66    0.109
# ℹ 20 more rows
…
